{
    "input": {
        "blocklist": [],
        "pitch": {
            "cents": 0,
            "crispness": 3,
            "faster": false,
            "formant-preserving": false,
            "input-gain": 0.0,
            "octaves": 0,
            "output-gain": 0.0,
            "semitones": -5
        },
        "plugins_order": [
            "rnnoise",
            "pitch",
            "reverb"
        ],
        "reverb": {
            "amount": -12.0,
            "bass-cut": 300.0,
            "decay-time": 1.5,
            "diffusion": 0.5,
            "dry": 0.0,
            "hf-damp": 5000.0,
            "input-gain": 0.0,
            "output-gain": 0.0,
            "predelay": 0.0,
            "room-size": "Large",
            "treble-cut": 5000.0
        },
        "rnnoise": {
            "input-gain": 0.0,
            "model-path": "",
            "output-gain": 1.0
        }
    }
}
